{
  "SERVICE_NET": [
    {
      "NET": "80.73.9.0",
      "PORTS": "{ALL_PORTS}"
    },
    {
      "NET": "80.73.11.0",
      "PORTS": "{ALL_PORTS}"
    },
    {
      "NET": "109.86.2.0",
      "PORTS": "{ALL_PORTS}"
    }
  ],
  "SNTP_PRIMARY": "109.86.231.1",
  "SNTP_SECONDARY": "37.57.147.56",
  "RADIUS_SERVER": "80.73.9.222",
  "RADIUS_SERVER_SECRET": "pron123",
  "PROFILE_IDS": [
    {
      "ALL_PORTS": "{ALL_PORTS}",
      "PROFILE_IDS": 1
    },{
      "ALL_PORTS": "{ALL_PORTS}",
      "PROFILE_IDS": 2
    },{
      "ALL_PORTS": "{ALL_PORTS}",
      "PROFILE_IDS": 3
    },{
      "ALL_PORTS": "{ALL_PORTS}",
      "PROFILE_IDS": 4
    },{
      "ALL_PORTS": "{ALL_PORTS}",
      "PROFILE_IDS": 5
    },{
      "ALL_PORTS": "{ALL_PORTS}",
      "PROFILE_IDS": 6
    },{
      "ALL_PORTS": "{ALL_PORTS}",
      "PROFILE_IDS": 7
    },{
      "ALL_PORTS": "{ALL_PORTS}",
      "PROFILE_IDS": 8
    }
  ],
  "SYSLOG": []
}